Diversidade linguística na África – Victor Batista
…
      Author

               Victor Batista 

      Published

        January 1, 2027

Linguística é um assunto que me interessa desde a escola. É fascinante saber que cada cultura se expressa em uma linguagem diferente, além do que uma pessoa que fala vários idiomas tem um charme encantador. Ao olhar para o continente africano, sua quantidade incrível de idiomas aumenta ainda mais esse interesse: a diversidade linguística é tão grande que é quase impossível de encontrar um consenso na sua classificação.

No Tidytuesday dessa semana, primeiro de 2026, analisei um scrapping da página Languages of Africa da Wikipedia, com o objetivo de analisar a distribuição das línguas africanas por famílias linguísticas e refletir sobre os limites desse tipo de base de dados.

africa

# A tibble: 796 × 4
   language   family      native_speakers country    
   <chr>      <chr>                 <dbl> <chr>      
 1 ǂKxʼaoǁʼae Kxʼa                   5000 Namibia    
 2 ǂKxʼaoǁʼae Kxʼa                   5000 Botswana   
 3 Abon       Niger–Congo             800 Cameroon   
 4 Abron      Niger–Congo         1393000 Ghana      
 5 Abron      Niger–Congo         1393000 Ivory Coast
 6 Acheron    Niger–Congo           20000 Sudan      
 7 Adara      Niger–Congo          300000 Nigeria    
 8 Afar       Afroasiatic         2500000 Ethiopia   
 9 Afar       Afroasiatic         2500000 Djibouti   
10 Afar       Afroasiatic         2500000 Eritrea    
# ℹ 786 more rows
…
Respeitando o trabalho da limpeza original da base, vamos proceder com as análises iniciais: Camarões aparece como o país com o maior número de idiomas, enquanto Soninke aparece como a língua falada em mais países simultâneamente, colada ao Árabe.

africa |> 
  dplyr::count(country, sort = T)

# A tibble: 51 × 2
   country          n
   <chr>        <int>
 1 Cameroon        96
 2 Congo           85
 3 Nigeria         73
 4 Sudan           40
 5 Burkina Faso    37
 6 Ghana           34
 7 South Africa    25
 8 Chad            24
 9 Namibia         24
10 Mali            23
# ℹ 41 more rows

africa |> 
  dplyr::count(language, sort = T)

# A tibble: 502 × 2
   language               n
   <chr>              <int>
 1 Soninke               13
 2 Arabic                12
 3 Fulani                11
 4 Mooré                  9
 5 Fang                   7
 6 Tsonga or Xitsonga     7
 7 Afar                   6
 8 Bariba                 6
 9 Gourmanché             6
10 Lozi                   6
# ℹ 492 more rows
…
